%YAML 1.1
%TAG !u! tag:unity3d.com,2011:
--- !u!74 &7400000
AnimationClip:
  m_ObjectHideFlags: 0
  m_PrefabParentObject: {fileID: 0}
  m_PrefabInternal: {fileID: 0}
  m_Name: eaglesnake
  serializedVersion: 6
  m_Legacy: 0
  m_Compressed: 0
  m_UseHighQualityCurve: 1
  m_RotationCurves: []
  m_CompressedRotationCurves: []
  m_EulerCurves: []
  m_PositionCurves: []
  m_ScaleCurves: []
  m_FloatCurves: []
  m_PPtrCurves:
  - curve:
    - time: 0
      value: {fileID: 21300000, guid: 9e1cfb2bd649d3e4c9cf77a0e8cdfcf7, type: 3}
    - time: 0.38333333
      value: {fileID: 21300000, guid: b9f5cf8deca7444428ed52bc24993c05, type: 3}
    - time: 0.75
      value: {fileID: 21300000, guid: a6de2e6fe9b537e4d91fc650cffcceb8, type: 3}
    - time: 1.1166667
      value: {fileID: 21300000, guid: 087d680ba454648468f5d5770981cf0f, type: 3}
    - time: 1.45
      value: {fileID: 21300000, guid: 087d680ba454648468f5d5770981cf0f, type: 3}
    attribute: m_Sprite
    path: 
    classID: 212
    script: {fileID: 0}
  m_SampleRate: 60
  m_WrapMode: 0
  m_Bounds:
    m_Center: {x: 0, y: 0, z: 0}
    m_Extent: {x: 0, y: 0, z: 0}
  m_ClipBindingConstant:
    genericBindings:
    - serializedVersion: 2
      path: 0
      attribute: 0
      script: {fileID: 0}
      typeID: 212
      customType: 23
      isPPtrCurve: 1
    pptrCurveMapping:
    - {fileID: 21300000, guid: 9e1cfb2bd649d3e4c9cf77a0e8cdfcf7, type: 3}
    - {fileID: 21300000, guid: b9f5cf8deca7444428ed52bc24993c05, type: 3}
    - {fileID: 21300000, guid: a6de2e6fe9b537e4d91fc650cffcceb8, type: 3}
    - {fileID: 21300000, guid: 087d680ba454648468f5d5770981cf0f, type: 3}
    - {fileID: 21300000, guid: 087d680ba454648468f5d5770981cf0f, type: 3}
  m_AnimationClipSettings:
    serializedVersion: 2
    m_AdditiveReferencePoseClip: {fileID: 0}
    m_AdditiveReferencePoseTime: 0
    m_StartTime: 0
    m_StopTime: 1.4666667
    m_OrientationOffsetY: 0
    m_Level: 0
    m_CycleOffset: 0
    m_HasAdditiveReferencePose: 0
    m_LoopTime: 1
    m_LoopBlend: 0
    m_LoopBlendOrientation: 0
    m_LoopBlendPositionY: 0
    m_LoopBlendPositionXZ: 0
    m_KeepOriginalOrientation: 0
    m_KeepOriginalPositionY: 1
    m_KeepOriginalPositionXZ: 0
    m_HeightFromFeet: 0
    m_Mirror: 0
  m_EditorCurves: []
  m_EulerEditorCurves: []
  m_HasGenericRootTransform: 0
  m_HasMotionFloatCurves: 0
  m_GenerateMotionCurves: 0
  m_Events: []
