%YAML 1.1
%TAG !u! tag:unity3d.com,2011:
--- !u!74 &7400000
AnimationClip:
  m_ObjectHideFlags: 0
  m_PrefabParentObject: {fileID: 0}
  m_PrefabInternal: {fileID: 0}
  m_Name: watermountain
  serializedVersion: 6
  m_Legacy: 0
  m_Compressed: 0
  m_UseHighQualityCurve: 1
  m_RotationCurves: []
  m_CompressedRotationCurves: []
  m_EulerCurves: []
  m_PositionCurves: []
  m_ScaleCurves: []
  m_FloatCurves: []
  m_PPtrCurves:
  - curve:
    - time: 0
      value: {fileID: 21300000, guid: cfc52a9f7e230b54889d33da712c60a7, type: 3}
    - time: 0.36666667
      value: {fileID: 21300000, guid: 0a43fdee545f699479defe455471f3e8, type: 3}
    - time: 0.76666665
      value: {fileID: 21300000, guid: c3fade2888f764445a16128daf54839f, type: 3}
    - time: 1.1
      value: {fileID: 21300000, guid: 4a6f6350054d3004e9b32fdd54a6b544, type: 3}
    - time: 1.4
      value: {fileID: 21300000, guid: 4a6f6350054d3004e9b32fdd54a6b544, type: 3}
    attribute: m_Sprite
    path: 
    classID: 212
    script: {fileID: 0}
  m_SampleRate: 60
  m_WrapMode: 0
  m_Bounds:
    m_Center: {x: 0, y: 0, z: 0}
    m_Extent: {x: 0, y: 0, z: 0}
  m_ClipBindingConstant:
    genericBindings:
    - serializedVersion: 2
      path: 0
      attribute: 0
      script: {fileID: 0}
      typeID: 212
      customType: 23
      isPPtrCurve: 1
    pptrCurveMapping:
    - {fileID: 21300000, guid: cfc52a9f7e230b54889d33da712c60a7, type: 3}
    - {fileID: 21300000, guid: 0a43fdee545f699479defe455471f3e8, type: 3}
    - {fileID: 21300000, guid: c3fade2888f764445a16128daf54839f, type: 3}
    - {fileID: 21300000, guid: 4a6f6350054d3004e9b32fdd54a6b544, type: 3}
    - {fileID: 21300000, guid: 4a6f6350054d3004e9b32fdd54a6b544, type: 3}
  m_AnimationClipSettings:
    serializedVersion: 2
    m_AdditiveReferencePoseClip: {fileID: 0}
    m_AdditiveReferencePoseTime: 0
    m_StartTime: 0
    m_StopTime: 1.4166666
    m_OrientationOffsetY: 0
    m_Level: 0
    m_CycleOffset: 0
    m_HasAdditiveReferencePose: 0
    m_LoopTime: 1
    m_LoopBlend: 0
    m_LoopBlendOrientation: 0
    m_LoopBlendPositionY: 0
    m_LoopBlendPositionXZ: 0
    m_KeepOriginalOrientation: 0
    m_KeepOriginalPositionY: 1
    m_KeepOriginalPositionXZ: 0
    m_HeightFromFeet: 0
    m_Mirror: 0
  m_EditorCurves: []
  m_EulerEditorCurves: []
  m_HasGenericRootTransform: 0
  m_HasMotionFloatCurves: 0
  m_GenerateMotionCurves: 0
  m_Events: []
